Mental Health and Standardized Test Scores – Aaron Kim
…
data2021[, 6] <- attempt_suicide2021[5:55, 2]
colnames(data2021)[6] <- "Attempted_Suicide"

data2021[, 7] <- sad_percent2021[5:55, 2]
colnames(data2021)[7] <- "Binge_Drinkers"

data2021$Sadness <- as.numeric(data2021$Sadness)
data2021$Not_Sleeping_Enough <- as.numeric(data2021$Not_Sleeping_Enough)
data2021$Attempted_Suicide <- as.numeric(data2021$Attempted_Suicide)
data2021$Binge_Drinkers <- as.numeric(data2021$Binge_Drinkers)

data2021

# A tibble: 51 × 7
   State                 SAT   ACT Sadness Not_Sleeping_Enough Attempted_Suicide
   <chr>               <dbl> <dbl>   <dbl>               <dbl>             <dbl>
 1 Alabama              1159  18.7    36.9                77.4              NA  
 2 Alaska               1119  20.6    NA                  NA                NA  
 3 Arizona              1181  19.8    NA                  79.3              10.4
 4 Arkansas             1194  19      42.9                77.8              10.4
 5 California           1057  26.1    NA                  NA                NA  
 6 Colorado             1072  23.6    41.7                75.6              11.9
 7 Connecticut          1072  27.2    35.6                78.6               5.9
 8 Delaware              984  25.7    36.9                80.1               8.7
 9 District of Columb…   987  25.6    36.3                NA                NA  
10 Florida               993  20.4    39.3                78.4               8.9
# ℹ 41 more rows
# ℹ 1 more variable: Binge_Drinkers <dbl>
…
Data Wrangling (Optional Section)

As mentioned above, there are several states that have missing data for various different statistics. I will make use of linear model imputation in order to do this. Linear imputation is appropriate here, since this data appears to be a case missing completely at random - there is no pattern among the states with missing data or commonality that they all share. The data is most likely missing due to surveyors not being particularly active in these states or some other fluke, rather than because of the impact of the variable of mental health itself (excluding the possibility of the missing data from being missing at random or not missing at random).

data2021imputed <- recipe(ACT ~ Sadness + Not_Sleeping_Enough + Attempted_Suicide + Binge_Drinkers,
                          data = data2021) |> 
  step_impute_linear(c(Sadness, Not_Sleeping_Enough, Attempted_Suicide, Binge_Drinkers), impute_with = imp_vars(ACT))

data2021_full <- data2021imputed |>
  prep() |>
  bake(new_data = NULL)

data2021_full

# A tibble: 51 × 5
   Sadness Not_Sleeping_Enough Attempted_Suicide Binge_Drinkers   ACT
     <dbl>               <dbl>             <dbl>          <dbl> <dbl>
 1    36.9                77.4             11.2            36.9  18.7
 2    40.6                77.3             10.8            40.6  20.6
 3    40.8                79.3             10.4            40.8  19.8
 4    42.9                77.8             10.4            42.9  19  
 5    38.7                78.2              9.59           38.7  26.1
 6    41.7                75.6             11.9            41.7  23.6
 7    35.6                78.6              5.9            35.6  27.2
 8    36.9                80.1              8.7            36.9  25.7
 9    36.3                78.1              9.69           36.3  25.6
10    39.3                78.4              8.9            39.3  20.4
# ℹ 41 more rows
…
